[gd_scene load_steps=2 format=2]

[ext_resource path="res://fonts/6x6-fixed.png" type="BitmapFont" id=1]

[node name="WeAreTheRats" type="Label"]
use_parent_material = true
margin_left = -80.0
margin_top = 2.0
margin_right = 120.0
margin_bottom = 10.0
custom_constants/line_spacing = 8
custom_fonts/font = ExtResource( 1 )
text = "RATS RATS WE ARE THE RATS"
