[gd_scene load_steps=11 format=2]

[ext_resource path="res://levels/Base.tscn" type="PackedScene" id=1]
[ext_resource path="res://fonts/Label6x6.tscn" type="PackedScene" id=2]
[ext_resource path="res://util/BlackBg.tscn" type="PackedScene" id=3]
[ext_resource path="res://levels/Start.gd" type="Script" id=4]

[sub_resource type="Animation" id=5]
resource_name = "Intro"
length = 20.0
tracks/0/type = "value"
tracks/0/path = NodePath("Intro/BlackBg:modulate")
tracks/0/interp = 1
tracks/0/loop_wrap = true
tracks/0/imported = false
tracks/0/enabled = true
tracks/0/keys = {
"times": PoolRealArray( 0, 10.9, 11.9, 12.3, 12.6, 15.3, 16.5, 16.8, 17, 17.5 ),
"transitions": PoolRealArray( 1, 1, 1, 1, 1, 1, 1, 1, 1, 1 ),
"update": 0,
"values": [ Color( 1, 1, 1, 1 ), Color( 1, 1, 1, 1 ), Color( 1, 1, 1, 0.498039 ), Color( 1, 1, 1, 0.498039 ), Color( 1, 1, 1, 1 ), Color( 1, 1, 1, 1 ), Color( 1, 1, 1, 0.498039 ), Color( 1, 1, 1, 0.498039 ), Color( 1, 1, 1, 1 ), Color( 1, 1, 1, 0 ) ]
}
tracks/1/type = "value"
tracks/1/path = NodePath("Intro/Text/Label:visible")
tracks/1/interp = 1
tracks/1/loop_wrap = true
tracks/1/imported = false
tracks/1/enabled = true
tracks/1/keys = {
"times": PoolRealArray( 0, 2.4 ),
"transitions": PoolRealArray( 1, 1 ),
"update": 1,
"values": [ true, false ]
}
tracks/2/type = "value"
tracks/2/path = NodePath("Intro/Text/Label2:visible")
tracks/2/interp = 1
tracks/2/loop_wrap = true
tracks/2/imported = false
tracks/2/enabled = true
tracks/2/keys = {
"times": PoolRealArray( 0, 2.7, 4.7 ),
"transitions": PoolRealArray( 1, 1, 1 ),
"update": 1,
"values": [ false, true, false ]
}
tracks/3/type = "value"
tracks/3/path = NodePath("Intro/Text/Label3:visible")
tracks/3/interp = 1
tracks/3/loop_wrap = true
tracks/3/imported = false
tracks/3/enabled = true
tracks/3/keys = {
"times": PoolRealArray( 0, 5, 7.1 ),
"transitions": PoolRealArray( 1, 1, 1 ),
"update": 1,
"values": [ false, true, false ]
}
tracks/4/type = "value"
tracks/4/path = NodePath("Intro/Text/Label4:visible")
tracks/4/interp = 1
tracks/4/loop_wrap = true
tracks/4/imported = false
tracks/4/enabled = true
tracks/4/keys = {
"times": PoolRealArray( 0, 7.4, 8.7 ),
"transitions": PoolRealArray( 1, 1, 1 ),
"update": 1,
"values": [ false, true, false ]
}
tracks/5/type = "value"
tracks/5/path = NodePath("Intro/Text/Label5:visible")
tracks/5/interp = 1
tracks/5/loop_wrap = true
tracks/5/imported = false
tracks/5/enabled = true
tracks/5/keys = {
"times": PoolRealArray( 0, 8.7, 10.6 ),
"transitions": PoolRealArray( 1, 1, 1 ),
"update": 1,
"values": [ false, true, false ]
}
tracks/6/type = "value"
tracks/6/path = NodePath("Intro/Text/Label6:visible")
tracks/6/interp = 1
tracks/6/loop_wrap = true
tracks/6/imported = false
tracks/6/enabled = true
tracks/6/keys = {
"times": PoolRealArray( 0, 10.6 ),
"transitions": PoolRealArray( 1, 1 ),
"update": 1,
"values": [ false, true ]
}
tracks/7/type = "value"
tracks/7/path = NodePath("Intro/Text:modulate")
tracks/7/interp = 1
tracks/7/loop_wrap = true
tracks/7/imported = false
tracks/7/enabled = true
tracks/7/keys = {
"times": PoolRealArray( 0, 0.8, 2, 2.4, 2.7, 3.1, 4.3, 4.7, 5, 5.4, 6.8, 7.1, 7.4, 7.6, 8.5, 8.7, 8.9, 10.4, 10.6, 12.6, 13, 14.8, 15.6 ),
"transitions": PoolRealArray( 1, 1, 1, 1, 1, 1, 1, 1, 1, 1, 1, 1, 1, 1, 1, 1, 1, 1, 1, 1, 1, 1, 1 ),
"update": 0,
"values": [ Color( 1, 1, 1, 0 ), Color( 1, 1, 1, 1 ), Color( 1, 1, 1, 1 ), Color( 1, 1, 1, 0 ), Color( 1, 1, 1, 0 ), Color( 1, 1, 1, 1 ), Color( 1, 1, 1, 1 ), Color( 1, 1, 1, 0 ), Color( 1, 1, 1, 0 ), Color( 1, 1, 1, 1 ), Color( 1, 1, 1, 1 ), Color( 1, 1, 1, 0 ), Color( 1, 1, 1, 0 ), Color( 1, 1, 1, 1 ), Color( 1, 1, 1, 1 ), Color( 1, 1, 1, 0 ), Color( 1, 1, 1, 1 ), Color( 1, 1, 1, 1 ), Color( 1, 1, 1, 0 ), Color( 1, 1, 1, 0 ), Color( 1, 1, 1, 1 ), Color( 1, 1, 1, 1 ), Color( 1, 1, 1, 0 ) ]
}
tracks/8/type = "value"
tracks/8/path = NodePath("Intro/Eye:modulate")
tracks/8/interp = 1
tracks/8/loop_wrap = true
tracks/8/imported = false
tracks/8/enabled = true
tracks/8/keys = {
"times": PoolRealArray( 0, 17.2, 18.9 ),
"transitions": PoolRealArray( 1, 1, 1 ),
"update": 0,
"values": [ Color( 1, 1, 1, 1 ), Color( 1, 1, 1, 1 ), Color( 1, 1, 1, 0 ) ]
}
tracks/9/type = "value"
tracks/9/path = NodePath("Player/AnimatedSprite:animation")
tracks/9/interp = 1
tracks/9/loop_wrap = true
tracks/9/imported = false
tracks/9/enabled = true
tracks/9/keys = {
"times": PoolRealArray( 10.7, 19.1 ),
"transitions": PoolRealArray( 1, 1 ),
"update": 1,
"values": [ "sleep", "idle" ]
}
tracks/10/type = "value"
tracks/10/path = NodePath("Player:freeze")
tracks/10/interp = 1
tracks/10/loop_wrap = true
tracks/10/imported = false
tracks/10/enabled = true
tracks/10/keys = {
"times": PoolRealArray( 0, 0.1, 19.4 ),
"transitions": PoolRealArray( 1, 1, 1 ),
"update": 1,
"values": [ false, true, false ]
}

[sub_resource type="Animation" id=6]
length = 0.001
tracks/0/type = "value"
tracks/0/path = NodePath("Intro/BlackBg:modulate")
tracks/0/interp = 1
tracks/0/loop_wrap = true
tracks/0/imported = false
tracks/0/enabled = true
tracks/0/keys = {
"times": PoolRealArray( 0 ),
"transitions": PoolRealArray( 1 ),
"update": 0,
"values": [ Color( 1, 1, 1, 1 ) ]
}
tracks/1/type = "value"
tracks/1/path = NodePath("Intro/Text/Label:visible")
tracks/1/interp = 1
tracks/1/loop_wrap = true
tracks/1/imported = false
tracks/1/enabled = true
tracks/1/keys = {
"times": PoolRealArray( 0 ),
"transitions": PoolRealArray( 1 ),
"update": 0,
"values": [ false ]
}
tracks/2/type = "value"
tracks/2/path = NodePath("Intro/Text/Label2:visible")
tracks/2/interp = 1
tracks/2/loop_wrap = true
tracks/2/imported = false
tracks/2/enabled = true
tracks/2/keys = {
"times": PoolRealArray( 0 ),
"transitions": PoolRealArray( 1 ),
"update": 0,
"values": [ false ]
}
tracks/3/type = "value"
tracks/3/path = NodePath("Intro/Text/Label3:visible")
tracks/3/interp = 1
tracks/3/loop_wrap = true
tracks/3/imported = false
tracks/3/enabled = true
tracks/3/keys = {
"times": PoolRealArray( 0 ),
"transitions": PoolRealArray( 1 ),
"update": 0,
"values": [ false ]
}
tracks/4/type = "value"
tracks/4/path = NodePath("Intro/Text/Label4:visible")
tracks/4/interp = 1
tracks/4/loop_wrap = true
tracks/4/imported = false
tracks/4/enabled = true
tracks/4/keys = {
"times": PoolRealArray( 0 ),
"transitions": PoolRealArray( 1 ),
"update": 0,
"values": [ false ]
}
tracks/5/type = "value"
tracks/5/path = NodePath("Intro/Text/Label5:visible")
tracks/5/interp = 1
tracks/5/loop_wrap = true
tracks/5/imported = false
tracks/5/enabled = true
tracks/5/keys = {
"times": PoolRealArray( 0 ),
"transitions": PoolRealArray( 1 ),
"update": 0,
"values": [ false ]
}
tracks/6/type = "value"
tracks/6/path = NodePath("Intro/Text/Label6:visible")
tracks/6/interp = 1
tracks/6/loop_wrap = true
tracks/6/imported = false
tracks/6/enabled = true
tracks/6/keys = {
"times": PoolRealArray( 0 ),
"transitions": PoolRealArray( 1 ),
"update": 0,
"values": [ false ]
}
tracks/7/type = "value"
tracks/7/path = NodePath("Intro/Text:modulate")
tracks/7/interp = 1
tracks/7/loop_wrap = true
tracks/7/imported = false
tracks/7/enabled = true
tracks/7/keys = {
"times": PoolRealArray( 0 ),
"transitions": PoolRealArray( 1 ),
"update": 0,
"values": [ Color( 1, 1, 1, 0 ) ]
}
tracks/8/type = "value"
tracks/8/path = NodePath("Intro/Eye:modulate")
tracks/8/interp = 1
tracks/8/loop_wrap = true
tracks/8/imported = false
tracks/8/enabled = true
tracks/8/keys = {
"times": PoolRealArray( 0 ),
"transitions": PoolRealArray( 1 ),
"update": 0,
"values": [ Color( 1, 1, 1, 1 ) ]
}
tracks/9/type = "value"
tracks/9/path = NodePath("Player/AnimatedSprite:animation")
tracks/9/interp = 1
tracks/9/loop_wrap = true
tracks/9/imported = false
tracks/9/enabled = true
tracks/9/keys = {
"times": PoolRealArray( 0 ),
"transitions": PoolRealArray( 1 ),
"update": 0,
"values": [ "idle" ]
}
tracks/10/type = "value"
tracks/10/path = NodePath("Player:freeze")
tracks/10/interp = 1
tracks/10/loop_wrap = true
tracks/10/imported = false
tracks/10/enabled = true
tracks/10/keys = {
"times": PoolRealArray( 0 ),
"transitions": PoolRealArray( 1 ),
"update": 0,
"values": [ true ]
}

[sub_resource type="Shader" id=1]
code = "shader_type canvas_item;

void fragment() {
	COLOR = texture(TEXTURE, UV);
}"

[sub_resource type="ShaderMaterial" id=2]
shader = SubResource( 1 )

[sub_resource type="Gradient" id=3]
offsets = PoolRealArray( 0, 0.5, 1 )
colors = PoolColorArray( 0, 0, 0, 1, 0, 0, 0, 0, 0, 0, 0, 1 )

[sub_resource type="GradientTexture2D" id=4]
gradient = SubResource( 3 )
fill_to = Vector2( 0, 1 )

[node name="Level" instance=ExtResource( 1 )]
script = ExtResource( 4 )

[node name="Tiles" parent="." index="2"]
tile_data = PoolIntArray( -9, 0, 8, -8, 0, 10, -7, 0, 10, -6, 0, 10, -5, 0, 10, -4, 0, 10, -3, 0, 10, -2, 0, 10, -1, 0, 10, -65536, 0, 10, -65535, 0, 10, -65534, 0, 10, -65533, 0, 10, -65532, 0, 10, -65531, 0, 10, -65530, 0, 10, -65529, 0, 10, -65528, 0, 10, -65527, 0, 10, -65526, 0, 10, -65525, 0, 10, -65524, 0, 10, -65523, 0, 10, -65522, 0, 10, -65521, 0, 10, -65520, 0, 10, -65519, 0, 10, -65518, 0, 10, -65517, 0, 10, -65516, 0, 10, -65515, 0, 10, -65514, 0, 10, -65513, 0, 10, -65512, 0, 10, -65511, 0, 10, -65510, 0, 10, -65509, 0, 10, -65508, 0, 10, -65507, 0, 10, -65506, 0, 10, -65505, 0, 10, -65504, 0, 10, -65503, 0, 10, -65502, 0, 11, 65527, 0, 65544, 65528, 0, 131081, 65529, 0, 131081, 65530, 0, 131081, 65531, 0, 131081, 65532, 0, 131081, 65533, 0, 131081, 65534, 0, 131081, 65535, 0, 131081, 0, 0, 131081, 1, 0, 131081, 2, 0, 131081, 3, 0, 131081, 4, 0, 131081, 5, 0, 131081, 6, 0, 131081, 7, 0, 131081, 8, 0, 131081, 9, 0, 131081, 10, 0, 131081, 11, 0, 131081, 12, 0, 131081, 13, 0, 131081, 14, 0, 131081, 15, 0, 131078, 16, 0, 196617, 17, 0, 196617, 18, 0, 131077, 19, 0, 131078, 20, 0, 196617, 21, 0, 196617, 22, 0, 196617, 23, 0, 196617, 24, 0, 196617, 25, 0, 196617, 26, 0, 196617, 27, 0, 131077, 28, 0, 131081, 29, 0, 131081, 30, 0, 131081, 31, 0, 131081, 32, 0, 131081, 33, 0, 131081, 34, 0, 131083, 131063, 0, 65544, 131064, 0, 131081, 131065, 0, 131081, 131066, 0, 131081, 131067, 0, 131081, 131068, 0, 131081, 131069, 0, 131081, 131070, 0, 131081, 131071, 0, 131081, 65536, 0, 131081, 65537, 0, 131081, 65538, 0, 131081, 65539, 0, 131081, 65540, 0, 131081, 65541, 0, 131081, 65542, 0, 131081, 65543, 0, 131078, 65544, 0, 196617, 65545, 0, 196617, 65546, 0, 196617, 65547, 0, 196617, 65548, 0, 196617, 65549, 0, 196617, 65550, 0, 196617, 65551, 0, 196619, 65554, 0, 196616, 65555, 0, 196619, 65563, 0, 65544, 65564, 0, 131081, 65565, 0, 131081, 65566, 0, 131081, 65567, 0, 131081, 65568, 0, 131081, 65569, 0, 131081, 65570, 0, 131083, 196599, 0, 65544, 196600, 0, 131081, 196601, 0, 131081, 196602, 0, 131081, 196603, 0, 131081, 196604, 0, 131081, 196605, 0, 131081, 196606, 0, 131081, 196607, 0, 131081, 131072, 0, 131081, 131073, 0, 131081, 131074, 0, 131081, 131075, 0, 131078, 131076, 0, 196617, 131077, 0, 196617, 131078, 0, 131077, 131079, 0, 131083, 131099, 0, 196616, 131100, 0, 196617, 131101, 0, 196617, 131102, 0, 196617, 131103, 0, 196617, 131104, 0, 196617, 131105, 0, 196617, 131106, 0, 196619, 262135, 0, 65544, 262136, 0, 131081, 262137, 0, 131081, 262138, 0, 131081, 262139, 0, 131081, 262140, 0, 131081, 262141, 0, 131081, 262142, 0, 131081, 262143, 0, 131081, 196608, 0, 131081, 196609, 0, 131081, 196610, 0, 131081, 196611, 0, 131083, 196614, 0, 196616, 196615, 0, 196619, 327671, 0, 65544, 327672, 0, 131081, 327673, 0, 131081, 327674, 0, 131081, 327675, 0, 131081, 327676, 0, 131081, 327677, 0, 131081, 327678, 0, 131081, 327679, 0, 131081, 262144, 0, 131081, 262145, 0, 131081, 262146, 0, 131081, 262147, 0, 131083, 393207, 0, 65544, 393208, 0, 131081, 393209, 0, 131081, 393210, 0, 131081, 393211, 0, 131081, 393212, 0, 131081, 393213, 0, 131081, 393214, 0, 131081, 393215, 0, 131081, 327680, 0, 131081, 327681, 0, 131078, 327682, 0, 196617, 327683, 0, 196619, 458743, 0, 65544, 458744, 0, 131081, 458745, 0, 131081, 458746, 0, 131081, 458747, 0, 131081, 458748, 0, 131081, 458749, 0, 131081, 458750, 0, 131081, 458751, 0, 131081, 393216, 0, 131081, 393217, 0, 131083, 524279, 0, 65544, 524280, 0, 131081, 524281, 0, 131081, 524282, 0, 131081, 524283, 0, 131081, 524284, 0, 131081, 524285, 0, 131081, 524286, 0, 131081, 524287, 0, 131081, 458752, 0, 131081, 458753, 0, 131083, 589815, 0, 65544, 589816, 0, 131081, 589817, 0, 131081, 589818, 0, 131081, 589819, 0, 131081, 589820, 0, 131081, 589821, 0, 131081, 589822, 0, 131081, 589823, 0, 131081, 524288, 0, 131081, 524289, 0, 65542, 524290, 0, 11, 655351, 0, 65544, 655352, 0, 131081, 655353, 0, 131081, 655354, 0, 131081, 655355, 0, 131081, 655356, 0, 131081, 655357, 0, 131081, 655358, 0, 131081, 655359, 0, 131081, 589824, 0, 131081, 589825, 0, 131081, 589826, 0, 65542, 589827, 0, 11, 589830, 0, 8, 589831, 0, 10, 589832, 0, 10, 589833, 0, 10, 589834, 0, 10, 589835, 0, 11, 589841, 0, 196609, 589842, 0, 5, 589843, 0, 11, 589844, 1, 0, 589845, 1, 0, 589846, 1, 0, 589847, 1, 0, 589848, 0, 8, 589849, 0, 10, 589850, 0, 10, 589851, 0, 10, 589852, 0, 10, 589853, 0, 10, 589854, 0, 10, 589855, 0, 10, 589856, 0, 10, 589857, 0, 10, 589858, 0, 11, 720887, 0, 65544, 720888, 0, 131081, 720889, 0, 131081, 720890, 0, 131081, 720891, 0, 131081, 720892, 0, 131081, 720893, 0, 131081, 720894, 0, 131081, 720895, 0, 131081, 655360, 0, 131081, 655361, 0, 131081, 655362, 0, 131081, 655363, 0, 131083, 655366, 0, 65544, 655367, 0, 131081, 655368, 0, 131081, 655369, 0, 131081, 655370, 0, 131081, 655371, 0, 131083, 655378, 0, 65544, 655379, 0, 131083, 655380, 1, 65536, 655381, 1, 65536, 655382, 1, 65536, 655383, 1, 65536, 655384, 0, 65544, 655385, 0, 131081, 655386, 0, 131081, 655387, 0, 131081, 655388, 0, 131081, 655389, 0, 131081, 655390, 0, 131081, 655391, 0, 131081, 655392, 0, 131081, 655393, 0, 131081, 655394, 0, 131083, 786423, 0, 65544, 786424, 0, 131081, 786425, 0, 131081, 786426, 0, 131081, 786427, 0, 131081, 786428, 0, 131081, 786429, 0, 131081, 786430, 0, 131081, 786431, 0, 131081, 720896, 0, 131081, 720897, 0, 131081, 720898, 0, 131081, 720899, 0, 65542, 720900, 0, 10, 720901, 0, 10, 720902, 0, 65541, 720903, 0, 131081, 720904, 0, 131081, 720905, 0, 131081, 720906, 0, 131081, 720907, 0, 131083, 720908, 1, 0, 720909, 1, 0, 720910, 0, 8, 720911, 0, 11, 720914, 0, 65544, 720915, 0, 65542, 720916, 0, 10, 720917, 0, 10, 720918, 0, 10, 720919, 0, 10, 720920, 0, 65541, 720921, 0, 131081, 720922, 0, 131081, 720923, 0, 131081, 720924, 0, 131081, 720925, 0, 131081, 720926, 0, 131081, 720927, 0, 131081, 720928, 0, 131081, 720929, 0, 131081, 720930, 0, 131083, 851959, 0, 65544, 851960, 0, 131081, 851961, 0, 131081, 851962, 0, 131081, 851963, 0, 131081, 851964, 0, 131081, 851965, 0, 131081, 851966, 0, 131081, 851967, 0, 131081, 786432, 0, 131081, 786433, 0, 131081, 786434, 0, 131081, 786435, 0, 131081, 786436, 0, 131081, 786437, 0, 131081, 786438, 0, 131081, 786439, 0, 131081, 786440, 0, 131081, 786441, 0, 131081, 786442, 0, 131081, 786443, 0, 131083, 786444, 1, 65536, 786445, 1, 65536, 786446, 0, 65544, 786447, 0, 131083, 786448, 1, 0, 786449, 1, 0, 786450, 0, 196616, 786451, 0, 196617, 786452, 0, 196617, 786453, 0, 196617, 786454, 0, 131077, 786455, 0, 131081, 786456, 0, 131081, 786457, 0, 131081, 786458, 0, 131081, 786459, 0, 131081, 786460, 0, 131081, 786461, 0, 131081, 786462, 0, 131081, 786463, 0, 131081, 786464, 0, 131081, 786465, 0, 131081, 786466, 0, 131083, 917495, 0, 65544, 917496, 0, 131081, 917497, 0, 131081, 917498, 0, 131081, 917499, 0, 131081, 917500, 0, 131081, 917501, 0, 131081, 917502, 0, 131081, 917503, 0, 131081, 851968, 0, 131081, 851969, 0, 131081, 851970, 0, 131081, 851971, 0, 131081, 851972, 0, 131081, 851973, 0, 131081, 851974, 0, 131081, 851975, 0, 131081, 851976, 0, 131081, 851977, 0, 131081, 851978, 0, 131081, 851979, 0, 65542, 851980, 0, 10, 851981, 0, 10, 851982, 0, 65541, 851983, 0, 131083, 851984, 1, 65536, 851985, 1, 65536, 851986, 1, 65536, 851987, 1, 65536, 851988, 1, 65536, 851989, 1, 65536, 851990, 0, 65544, 851991, 0, 131081, 851992, 0, 131081, 851993, 0, 131081, 851994, 0, 131081, 851995, 0, 131081, 851996, 0, 131081, 851997, 0, 131081, 851998, 0, 131081, 851999, 0, 131081, 852000, 0, 131081, 852001, 0, 131081, 852002, 0, 131083, 983031, 0, 65544, 983032, 0, 131081, 983033, 0, 131081, 983034, 0, 131081, 983035, 0, 131081, 983036, 0, 131081, 983037, 0, 131081, 983038, 0, 131081, 983039, 0, 131081, 917504, 0, 131081, 917505, 0, 131081, 917506, 0, 131081, 917507, 0, 131081, 917508, 0, 131081, 917509, 0, 131081, 917510, 0, 131081, 917511, 0, 131081, 917512, 0, 131081, 917513, 0, 131081, 917514, 0, 131081, 917515, 0, 131081, 917516, 0, 131081, 917517, 0, 131081, 917518, 0, 131081, 917519, 0, 131083, 917520, 1, 65536, 917521, 1, 65536, 917522, 1, 65536, 917523, 1, 65536, 917524, 1, 65536, 917525, 1, 65536, 917526, 0, 65544, 917527, 0, 131081, 917528, 0, 131081, 917529, 0, 131081, 917530, 0, 131081, 917531, 0, 131081, 917532, 0, 131081, 917533, 0, 131081, 917534, 0, 131081, 917535, 0, 131081, 917536, 0, 131081, 917537, 0, 131081, 917538, 0, 131083, 1048567, 0, 65544, 1048568, 0, 131081, 1048569, 0, 131081, 1048570, 0, 131081, 1048571, 0, 131081, 1048572, 0, 131081, 1048573, 0, 131081, 1048574, 0, 131081, 1048575, 0, 131081, 983040, 0, 131081, 983041, 0, 131081, 983042, 0, 131081, 983043, 0, 131081, 983044, 0, 131081, 983045, 0, 131081, 983046, 0, 131081, 983047, 0, 131081, 983048, 0, 131081, 983049, 0, 131081, 983050, 0, 131081, 983051, 0, 131081, 983052, 0, 131081, 983053, 0, 131081, 983054, 0, 131081, 983055, 0, 65542, 983056, 0, 10, 983057, 0, 10, 983058, 0, 10, 983059, 0, 10, 983060, 0, 10, 983061, 0, 10, 983062, 0, 65541, 983063, 0, 131081, 983064, 0, 131081, 983065, 0, 131081, 983066, 0, 131081, 983067, 0, 131081, 983068, 0, 131081, 983069, 0, 131081, 983070, 0, 131081, 983071, 0, 131081, 983072, 0, 131081, 983073, 0, 131081, 983074, 0, 131083, 1114103, 0, 65544, 1114104, 0, 131081, 1114105, 0, 131081, 1114106, 0, 131081, 1114107, 0, 131081, 1114108, 0, 131081, 1114109, 0, 131081, 1114110, 0, 131081, 1114111, 0, 131081, 1048576, 0, 131081, 1048577, 0, 131081, 1048578, 0, 131081, 1048579, 0, 131081, 1048580, 0, 131081, 1048581, 0, 131081, 1048582, 0, 131081, 1048583, 0, 131081, 1048584, 0, 131081, 1048585, 0, 131081, 1048586, 0, 131081, 1048587, 0, 131081, 1048588, 0, 131081, 1048589, 0, 131081, 1048590, 0, 131081, 1048591, 0, 131081, 1048592, 0, 131081, 1048593, 0, 131081, 1048594, 0, 131081, 1048595, 0, 131081, 1048596, 0, 131081, 1048597, 0, 131081, 1048598, 0, 131081, 1048599, 0, 131081, 1048600, 0, 131081, 1048601, 0, 131081, 1048602, 0, 131081, 1048603, 0, 131081, 1048604, 0, 131081, 1048605, 0, 131081, 1048606, 0, 131081, 1048607, 0, 131081, 1048608, 0, 131081, 1048609, 0, 131081, 1048610, 0, 131083, 1179639, 0, 196616, 1179640, 0, 196617, 1179641, 0, 196617, 1179642, 0, 196617, 1179643, 0, 196617, 1179644, 0, 196617, 1179645, 0, 196617, 1179646, 0, 196617, 1179647, 0, 196617, 1114112, 0, 196617, 1114113, 0, 196617, 1114114, 0, 196617, 1114115, 0, 196617, 1114116, 0, 196617, 1114117, 0, 196617, 1114118, 0, 196617, 1114119, 0, 196617, 1114120, 0, 196617, 1114121, 0, 196617, 1114122, 0, 196617, 1114123, 0, 196617, 1114124, 0, 196617, 1114125, 0, 196617, 1114126, 0, 196617, 1114127, 0, 196617, 1114128, 0, 196617, 1114129, 0, 196617, 1114130, 0, 196617, 1114131, 0, 196617, 1114132, 0, 196617, 1114133, 0, 196617, 1114134, 0, 196617, 1114135, 0, 196617, 1114136, 0, 196617, 1114137, 0, 196617, 1114138, 0, 196617, 1114139, 0, 196617, 1114140, 0, 196617, 1114141, 0, 196617, 1114142, 0, 196617, 1114143, 0, 196617, 1114144, 0, 196617, 1114145, 0, 196617, 1114146, 0, 196619 )

[node name="Player" parent="." index="3"]
position = Vector2( 64, 64 )
freeze = true

[node name="AnimationPlayer" type="AnimationPlayer" parent="." index="6"]
anims/Intro = SubResource( 5 )
anims/RESET = SubResource( 6 )

[node name="Intro" type="CanvasLayer" parent="." index="7"]
visible = false

[node name="BlackBg" parent="Intro" index="0" instance=ExtResource( 3 )]

[node name="Eye" parent="Intro" index="1" instance=ExtResource( 3 )]
material = SubResource( 2 )
texture = SubResource( 4 )
uv = PoolVector2Array( 0, 0, 0, 0, 0, 64, 0, 64 )

[node name="Text" type="Node2D" parent="Intro" index="2"]
modulate = Color( 1, 1, 1, 0 )

[node name="Label" parent="Intro/Text" index="0" instance=ExtResource( 2 )]
visible = false
modulate = Color( 1, 1, 1, 0.2 )
margin_right = 240.0
margin_bottom = 128.0
text = "Wake up, Ember..."
align = 1
valign = 1

[node name="Label2" parent="Intro/Text" index="1" instance=ExtResource( 2 )]
visible = false
modulate = Color( 1, 1, 1, 0.4 )
margin_right = 240.0
margin_bottom = 128.0
text = "Wake up..."
align = 1
valign = 1

[node name="Label3" parent="Intro/Text" index="2" instance=ExtResource( 2 )]
visible = false
modulate = Color( 1, 1, 1, 0.8 )
margin_right = 240.0
margin_bottom = 128.0
text = "hello you
STINKY RATGIRL..."
align = 1
valign = 1

[node name="Label4" parent="Intro/Text" index="3" instance=ExtResource( 2 )]
visible = false
modulate = Color( 1, 1, 1, 0.6 )
margin_right = 240.0
margin_bottom = 128.0
text = "*sigh*"
align = 1
valign = 1

[node name="Label5" parent="Intro/Text" index="4" instance=ExtResource( 2 )]
visible = false
modulate = Color( 1, 1, 1, 0.6 )
margin_right = 240.0
margin_bottom = 128.0
text = "Go eat a peanut."
align = 1
valign = 1

[node name="Label6" parent="Intro/Text" index="5" instance=ExtResource( 2 )]
visible = false
modulate = Color( 1, 1, 1, 0.8 )
margin_right = 240.0
margin_bottom = 128.0
text = "I'll come find you
when you're less sleepy."
align = 1
valign = 1

[editable path="Player"]
